<svg xmlns="http://www.w3.org/2000/svg" width="2040" height="1756" viewBox="0 0 2040 1756">
  <g id="Ellipse_1" data-name="Ellipse 1" fill="#7e57c2" stroke="#707070" stroke-width="1">
    <ellipse cx="1020" cy="878" rx="1020" ry="878" stroke="none"/>
    <ellipse cx="1020" cy="878" rx="1019.5" ry="877.5" fill="none"/>
  </g>
</svg>
