<svg xmlns="http://www.w3.org/2000/svg" xmlns="http://www.w3.org/1999/xlink" width="1920" height="1080" viewBox="0 0 1920 1080">
  <defs>
    <clipPath id="clip-KamKaj4">
      <rect width="1920" height="1080"/>
    </clipPath>
  </defs>
  <g id="KamKaj4" clip-path="url(#clip-KamKaj4)">
    <rect width="1920" height="1080" fill="rgba(255,255,255,0)"/>
    <g id="Ellipse_1" data-name="Ellipse 1" transform="translate(1172 -1147)" fill="#7e57c2" stroke="#707070" stroke-width="1">
      <ellipse cx="1055.5" cy="826" rx="1055.5" ry="826" stroke="none"/>
      <ellipse cx="1055.5" cy="826" rx="1055" ry="825.5" fill="none"/>
    </g>
    <g id="Ellipse_2" data-name="Ellipse 2" transform="translate(-1346 -1148)" fill="#7e57c2" stroke="#707070" stroke-width="1">
      <ellipse cx="1055.5" cy="826" rx="1055.5" ry="826" stroke="none"/>
      <ellipse cx="1055.5" cy="826" rx="1055" ry="825.5" fill="none"/>
    </g>
  </g>
</svg>
